%YAML 1.1
%TAG !u! tag:unity3d.com,2011:
--- !u!114 &11400000
MonoBehaviour:
  m_ObjectHideFlags: 0
  m_CorrespondingSourceObject: {fileID: 0}
  m_PrefabInstance: {fileID: 0}
  m_PrefabAsset: {fileID: 0}
  m_GameObject: {fileID: 0}
  m_Enabled: 1
  m_EditorHideFlags: 0
  m_Script: {fileID: 11500000, guid: f22f4cb9b577e884f8cbfebc953ed025, type: 3}
  m_Name: Apples
  m_EditorClassIdentifier: 
  Name: Apples
  Category: 1
  ToolTipSprite: {fileID: 21300000, guid: 1f6172be52e17c34d87056ed108b022c, type: 3}
  WinterAnimation: 
  Description: 'Delicious, keep the Doctor away

    and are well-liked by everyone.'
  LimitedToWater: 0
  Price: 200
  UnlockPrice: 350
  UnlockYear: 2
  GrowthStages:
  - EndTurn: 5
    AnimationName: apples_0
    ActiveEffect: 0
    RevertToTurn: -1
    DetailObjectPrefab: {fileID: 0}
  - EndTurn: 15
    AnimationName: apples_1
    ActiveEffect: 0
    RevertToTurn: -1
    DetailObjectPrefab: {fileID: 0}
  - EndTurn: 22
    AnimationName: apples_2
    ActiveEffect: 0
    RevertToTurn: -1
    DetailObjectPrefab: {fileID: 0}
  - EndTurn: 23
    AnimationName: apples_2_fruit
    ActiveEffect: 1
    RevertToTurn: 15
    DetailObjectPrefab: {fileID: 0}
  StartYearAfterWinter: 15
  SurvivesWinter: 1
  WinterProofed: 0
  SlatedForDeletion: 0
  FoodType: 8
  FoodPerTurn: 650
  VictoryPointsPerTurn: 80
