%YAML 1.1
%TAG !u! tag:unity3d.com,2011:
--- !u!114 &11400000
MonoBehaviour:
  m_ObjectHideFlags: 0
  m_CorrespondingSourceObject: {fileID: 0}
  m_PrefabInstance: {fileID: 0}
  m_PrefabAsset: {fileID: 0}
  m_GameObject: {fileID: 0}
  m_Enabled: 1
  m_EditorHideFlags: 0
  m_Script: {fileID: 11500000, guid: f22f4cb9b577e884f8cbfebc953ed025, type: 3}
  m_Name: Beans
  m_EditorClassIdentifier: 
  Name: Beans
  Category: 1
  ToolTipSprite: {fileID: 21300000, guid: 072b72d0b6ff74249906d6e9c732988c, type: 3}
  WinterAnimation: 
  Description: "Slow to grow but produce <b><color=#ad82cf>Food</color></b> steadily.
    \nNot too well liked by most animals."
  LimitedToWater: 0
  Price: 30
  UnlockPrice: 0
  UnlockYear: 0
  GrowthStages:
  - EndTurn: 1
    AnimationName: beans_0
    ActiveEffect: 0
    RevertToTurn: -1
    DetailObjectPrefab: {fileID: 0}
  - EndTurn: 3
    AnimationName: beans_1
    ActiveEffect: 0
    RevertToTurn: -1
    DetailObjectPrefab: {fileID: 0}
  - EndTurn: 5
    AnimationName: beans_2
    ActiveEffect: 0
    RevertToTurn: -1
    DetailObjectPrefab: {fileID: 0}
  - EndTurn: 6
    AnimationName: beans_2_fruit
    ActiveEffect: 1
    RevertToTurn: 3
    DetailObjectPrefab: {fileID: 0}
  StartYearAfterWinter: 3
  SurvivesWinter: 1
  WinterProofed: 0
  SlatedForDeletion: 0
  FoodType: 3
  FoodPerTurn: 30
  VictoryPointsPerTurn: 3
