%YAML 1.1
%TAG !u! tag:unity3d.com,2011:
--- !u!114 &11400000
MonoBehaviour:
  m_ObjectHideFlags: 0
  m_CorrespondingSourceObject: {fileID: 0}
  m_PrefabInstance: {fileID: 0}
  m_PrefabAsset: {fileID: 0}
  m_GameObject: {fileID: 0}
  m_Enabled: 1
  m_EditorHideFlags: 0
  m_Script: {fileID: 11500000, guid: f22f4cb9b577e884f8cbfebc953ed025, type: 3}
  m_Name: Fish
  m_EditorClassIdentifier: 
  Name: Fishing Cat
  Category: 1
  ToolTipSprite: {fileID: 21300000, guid: cd6c6a0106858794bb583ceff7691a2f, type: 3}
  WinterAnimation: 
  Description: "Give it to me raw and wriggling. \n-<color=#ff5b4f><b>Bear cub</color></b>\nProduces
    fish.\nNot eaten by <color=#ff5b4f><b>Herbivores</color></b>."
  LimitedToWater: 1
  Price: 100
  UnlockPrice: 250
  UnlockYear: 4
  GrowthStages:
  - EndTurn: 4
    AnimationName: fishing_rod_0
    ActiveEffect: 0
    RevertToTurn: -1
    DetailObjectPrefab: {fileID: 0}
  - EndTurn: 5
    AnimationName: fishing_rod_0
    ActiveEffect: 1
    RevertToTurn: 0
    DetailObjectPrefab: {fileID: 0}
  StartYearAfterWinter: 0
  SurvivesWinter: 1
  WinterProofed: 0
  SlatedForDeletion: 0
  FoodType: 9
  FoodPerTurn: 150
  VictoryPointsPerTurn: 10
