%YAML 1.1
%TAG !u! tag:unity3d.com,2011:
--- !u!114 &11400000
MonoBehaviour:
  m_ObjectHideFlags: 0
  m_CorrespondingSourceObject: {fileID: 0}
  m_PrefabInstance: {fileID: 0}
  m_PrefabAsset: {fileID: 0}
  m_GameObject: {fileID: 0}
  m_Enabled: 1
  m_EditorHideFlags: 0
  m_Script: {fileID: 11500000, guid: f22f4cb9b577e884f8cbfebc953ed025, type: 3}
  m_Name: Grapes
  m_EditorClassIdentifier: 
  Name: Grapes
  Category: 1
  ToolTipSprite: {fileID: 21300000, guid: 13983147d6d512e4b927f016984e3bde, type: 3}
  WinterAnimation: 
  Description: "Maybe you'll make wine one day, \nbut for now this is a very tasty
    treat \nfor your animals."
  LimitedToWater: 0
  Price: 50
  UnlockPrice: 275
  UnlockYear: 2
  GrowthStages:
  - EndTurn: 2
    AnimationName: grapes_0
    ActiveEffect: 0
    RevertToTurn: -1
    DetailObjectPrefab: {fileID: 0}
  - EndTurn: 4
    AnimationName: grapes_1
    ActiveEffect: 0
    RevertToTurn: -1
    DetailObjectPrefab: {fileID: 0}
  - EndTurn: 7
    AnimationName: grapes_2
    ActiveEffect: 0
    RevertToTurn: -1
    DetailObjectPrefab: {fileID: 0}
  - EndTurn: 8
    AnimationName: grapes_2_fruit
    ActiveEffect: 1
    RevertToTurn: 4
    DetailObjectPrefab: {fileID: 0}
  StartYearAfterWinter: 0
  SurvivesWinter: 0
  WinterProofed: 0
  SlatedForDeletion: 0
  FoodType: 6
  FoodPerTurn: 60
  VictoryPointsPerTurn: 8
