%YAML 1.1
%TAG !u! tag:unity3d.com,2011:
--- !u!114 &11400000
MonoBehaviour:
  m_ObjectHideFlags: 0
  m_CorrespondingSourceObject: {fileID: 0}
  m_PrefabInstance: {fileID: 0}
  m_PrefabAsset: {fileID: 0}
  m_GameObject: {fileID: 0}
  m_Enabled: 1
  m_EditorHideFlags: 0
  m_Script: {fileID: 11500000, guid: a6213df5fb95ceb4da397e91743df765, type: 3}
  m_Name: 3
  m_EditorClassIdentifier: 
  Turns: 15
  Year: 3
  Unlocks: []
  IsLastYear: 0
  RegionUnlocks:
  - {x: 3, y: 0}
  - {x: 3, y: 1}
  - {x: 3, y: 2}
  - {x: 3, y: 3}
  - {x: 3, y: 4}
  - {x: 3, y: 5}
  - {x: 9, y: 1}
  - {x: 9, y: 2}
  - {x: 9, y: 3}
  - {x: 9, y: 4}
  - {x: 9, y: 5}
  - {x: 9, y: 0}
